{
  "swagger" : "2.0",
  "info" : {
    "title" : "CARST0001_Calculadora",
    "version" : "1.0.0",
    "description" : "CARST0001_Calculadora"
  },
  "paths" : {
    "/calculos/soma" : {
      "get" : {
        "operationId" : "getSoma",
        "responses" : {
          "200" : {
            "description" : "The operation was successful.",
            "schema" : {
              "$ref" : "#/definitions/Retorno"
            }
          }
        },
        "produces" : [ "application/json" ],
        "description" : "Retrieve Soma",
        "parameters" : [ {
          "name" : "valor1",
          "in" : "query",
          "type" : "integer",
          "required" : true
        }, {
          "name" : "valor2",
          "in" : "query",
          "type" : "integer",
          "required" : true
        } ]
      }
    },
    "/calculos/subtrai" : {
      "get" : {
        "operationId" : "getSubtrai",
        "responses" : {
          "200" : {
            "description" : "The operation was successful.",
            "schema" : {
              "$ref" : "#/definitions/Retorno"
            }
          }
        },
        "produces" : [ "application/json" ],
        "description" : "Retrieve subtrai",
        "parameters" : [ {
          "name" : "valor1",
          "in" : "query",
          "type" : "integer",
          "required" : true
        }, {
          "name" : "valor2",
          "in" : "query",
          "type" : "integer",
          "required" : true
        } ]
      }
    },
    "/calculos/divide" : {
      "get" : {
        "operationId" : "getDivide",
        "responses" : {
          "200" : {
            "description" : "The operation was successful.",
            "schema" : {
              "$ref" : "#/definitions/Retorno"
            }
          }
        },
        "produces" : [ "application/json" ],
        "description" : "Retrieve divide",
        "parameters" : [ {
          "name" : "valor1",
          "in" : "query",
          "type" : "integer",
          "required" : true
        }, {
          "name" : "valor2",
          "in" : "query",
          "type" : "integer",
          "required" : true
        } ]
      }
    },
    "/calculos/multiplica" : {
      "get" : {
        "operationId" : "getMultiplica",
        "responses" : {
          "200" : {
            "description" : "The operation was successful.",
            "schema" : {
              "$ref" : "#/definitions/Retorno"
            }
          }
        },
        "produces" : [ "application/json" ],
        "description" : "Retrieve multiplica",
        "parameters" : [ {
          "name" : "valor1",
          "in" : "query",
          "type" : "integer",
          "required" : true
        }, {
          "name" : "valor2",
          "in" : "query",
          "type" : "integer",
          "required" : true
        } ]
      }
    }
  },
  "basePath" : "/carst0001_calculadora/v1",
  "definitions" : {
    "Retorno" : {
      "type" : "object",
      "properties" : {
        "resultado" : {
          "type" : "string"
        }
      }
    },
    "Erro" : {
      "type" : "object",
      "properties" : {
        "codigo" : {
          "type" : "string"
        },
        "mensagem" : {
          "type" : "string"
        },
        "detalhes" : {
          "type" : "string"
        }
      }
    }
  }
}